<?xml version="1.0" encoding="UTF-8" standalone="no"?>
<svg width="47px" height="76px" viewBox="0 0 47 76" version="1.1" xmlns="http://www.w3.org/2000/svg" xmlns:xlink="http://www.w3.org/1999/xlink">
    <!-- Generator: Sketch 47 (45396) - http://www.bohemiancoding.com/sketch -->
    <title>Page 1 Copy 7</title>
    <desc>Created with Sketch.</desc>
    <defs>
        <polygon id="path-1" points="46.9999695 76 0 76 0 0.0212892495 46.9999695 0.0212892495 46.9999695 76"></polygon>
    </defs>
    <g id="z" stroke="none" stroke-width="1" fill="none" fill-rule="evenodd">
        <g id="Page-1-Copy-7">
            <g id="Group-3">
                <mask id="mask-2" fill="white">
                    <use xlink:href="#path-1"></use>
                </mask>
                <g id="Clip-2"></g>
                <path d="M23.5077519,6.75954483 C23.2994565,7.12844544 23.1699013,7.34580852 23.0516383,7.56918377 C21.6636123,10.1924941 20.2905409,12.8238207 18.8726058,15.4304819 C18.7062747,15.7358694 18.3211188,16.0538978 17.9925766,16.1132487 C15.9450247,16.4836909 13.8845019,16.779983 11.8288623,17.1049485 C10.6427227,17.292559 9.4576513,17.4875692 8.27212208,17.679342 C8.23687208,17.7590418 8.20162208,17.8385874 8.16621948,17.9182872 C8.39099545,18.0849323 8.63835584,18.2278369 8.83657987,18.421768 C10.9375409,20.4768511 13.0366708,22.53363 15.1156578,24.6110661 C15.3196805,24.8147091 15.5285864,25.1799099 15.4928786,25.4353501 C15.2124045,27.4397152 14.8689078,29.434985 14.5525734,31.434417 C14.3583169,32.6622872 14.1777942,33.8924698 13.9694987,35.2637071 C14.3468721,35.093054 14.5750052,34.9968592 14.7970344,34.8881777 C17.4917519,33.5696625 20.191963,32.2622467 22.8734045,30.9169079 C23.3397422,30.6828957 23.6925474,30.7067903 24.1445409,30.9324779 C26.8288818,32.2719586 29.5281773,33.580916 32.2230474,34.8991229 C32.4421773,35.0062629 32.6652747,35.1053866 32.9536838,35.2396584 C32.9536838,34.9532325 32.9771838,34.773484 32.9503266,34.6017517 C32.4868883,31.6396016 32.0338266,28.6756016 31.5325442,25.7199262 C31.4487682,25.226774 31.5235409,24.9189201 31.8790929,24.5765347 C33.5726188,22.9461574 35.241424,21.2895732 36.9163331,19.6396178 C37.5316058,19.0336219 38.1401643,18.4205347 38.7987747,17.7635124 C38.5840701,17.6862791 38.4494792,17.6125915 38.3071058,17.5902385 C35.2484435,17.1100357 32.1897812,16.6301412 29.1286773,16.1652 C28.6426545,16.0915124 28.3252519,15.9005103 28.0841481,15.4289404 C27.0127617,13.3330053 25.8957487,11.2606564 24.7944532,9.18029128 C24.3908331,8.4179789 23.984924,7.65705396 23.5077519,6.75954483 L23.5077519,6.75954483 Z M37.332161,72.7542142 C36.4200864,65.3792852 35.5179305,58.0848268 34.6113494,50.7558369 L12.3875214,50.7558369 C11.4800247,58.0990093 10.5768006,65.406417 9.66869351,72.7542142 L37.332161,72.7542142 Z M-3.05194805e-05,72.7650053 L6.48261234,72.7650053 C7.5248526,64.3532081 8.56388831,55.9666929 9.61162208,47.5098815 L21.8947974,47.5098815 L21.8947974,34.9584738 C17.885911,36.9213704 13.9485929,38.849273 9.88507662,40.8388389 C10.1422032,39.199058 10.3787292,37.687845 10.616476,36.1769404 C11.1221838,32.9618166 11.6399468,29.7485428 12.1128461,26.5286402 C12.1496221,26.2782872 11.9381221,25.9161696 11.7354727,25.7154556 C8.5587,22.5672365 5.36498896,19.4362832 2.17204091,16.3044049 C1.95596299,16.0924373 1.71531688,15.9055976 1.31978442,15.5627497 C2.66920325,15.3398369 3.77965455,15.1492974 4.89239481,14.9737112 C8.57762208,14.3923805 12.2659013,13.8300114 15.9456351,13.2150742 C16.2734143,13.1603481 16.664674,12.8418572 16.8288688,12.5370864 C18.9156383,8.66293631 20.965937,4.76859148 23.0263071,0.879796349 C23.1563201,0.634376471 23.2927422,0.392193915 23.4956968,0.0212892495 C23.6769825,0.339163489 23.8138623,0.564696957 23.937161,0.797475862 C26.0091286,4.70908641 28.0881156,8.616843 30.1376513,12.5403237 C30.3680734,12.9813704 30.6573981,13.1811594 31.1153429,13.2526888 C35.7546091,13.975845 40.3925019,14.7062467 45.0305474,15.438344 C45.1706318,15.4603886 45.3046123,15.5223602 45.5875279,15.7687051 C45.3551221,15.9261006 45.0921968,16.0520479 44.8942779,16.2456706 C41.679661,19.3915773 38.4772519,22.5502791 35.2585149,25.6921777 C34.9377552,26.005273 34.8173558,26.2730458 34.8957909,26.7510905 C35.6297844,31.2267659 36.326239,35.708916 37.0301708,40.1896787 C37.0571805,40.3615651 37.0486351,40.5394637 37.0609955,40.8112446 C33.0554662,38.850198 29.1195214,36.9232203 25.1074305,34.9589363 L25.1074305,47.5088024 L37.3886221,47.5088024 C38.4331513,55.9458815 39.4688299,64.3111229 40.5154955,72.7650053 L46.9999695,72.7650053 L46.9999695,75.9987822 C31.3334045,76.0000154 15.666687,76.0000154 -3.05194805e-05,76.0000154 L-3.05194805e-05,72.7650053 Z" id="Fill-1" fill="#FEFEFE" mask="url(#mask-2)"></path>
            </g>
            <path d="M20.2898232,61.4301263 C20.2674547,63.2350635 21.6395496,64.6777166 23.4193545,64.7204127 C25.2018564,64.7632669 26.6750062,63.3626774 26.7103834,61.5912644 C26.747347,59.7551749 25.3527249,58.2853228 23.5413502,58.251324 C21.7823274,58.2185904 20.3117158,59.6560251 20.2898232,61.4301263 M29.9999845,61.5295923 C29.992687,65.0836457 27.0398829,68.0144944 23.4815422,67.9999461 C19.8841756,67.9852396 16.9843579,65.0384194 17.0000635,61.4136804 C17.0151345,57.8895143 19.9146348,55.0192308 23.4790039,55.0000966 C27.0916002,54.9806462 30.007758,57.9007418 29.9999845,61.5295923" id="Fill-4" fill="#FEFEFE"></path>
        </g>
    </g>
</svg>